{
	"info": {
		"_postman_id": "4a5b6d19-99d0-42b3-ae05-5787aee9f2d5",
		"name": "Status",
		"description": "Llamadas a /status la Api de Symfony para jugar a mastermind para trabajo APi 1 experto en desarrollo fullstack\n",
		"schema": "https://schema.getpostman.com/json/collection/v2.1.0/collection.json"
	},
	"item": [
		{
			"name": "GET Status",
			"request": {
				"method": "GET",
				"header": [],
				"body": {},
				"url": {
					"raw": "http://localhost:8000/api/v1/status",
					"protocol": "http",
					"host": [
						"localhost"
					],
					"port": "8000",
					"path": [
						"api",
						"v1",
						"status"
					]
				},
				"description": "Listado de estados en el servidor"
			},
			"response": []
		}
	]
}